Walkthrough of Predicting IgG Titers Using Tidymodels Machine Learning
…
set.seed(123) 

Then, we use 80% of the training data for training and 20% for validation. We use a special function called group_initial_split to ensure that the training and validation sets are chosen by treating data from a given subject_id as a group (it cannot be split into smaller parts by, say, actual_day_relative_to_boost). This is important, since we want to ensure that all the data for a given subject_id is either in the training set or the testing set, but not both. Otherwise, we will have data that is split up, called data leakage, which can lead to poor model performance.

training_split <- group_initial_split(training, prop = 0.8, group = "subject_id")

Now we can extract the training and testing sets from the split:

training_train <- training_split %>% training()
training_validation <- training_split %>% testing()

# We can inspect the training and testing sets to see what they look like
training_train

# A tibble: 182 × 20
   specimen_id isotype is_antigen_specific antigen   MFI MFI_normalised unit 
         <dbl> <chr>   <lgl>               <chr>   <dbl>          <dbl> <chr>
 1         468 IgG     FALSE               PT       113.          1     MFI  
 2         469 IgG     FALSE               PT       111.          0.987 MFI  
 3         470 IgG     FALSE               PT       126.          1.11  MFI  
 4         471 IgG     FALSE               PT       224.          1.99  MFI  
 5         472 IgG     FALSE               PT       304           2.70  MFI  
 6         473 IgG     FALSE               PT       274           2.43  MFI  
 7         474 IgG     FALSE               PT       172.          1.52  MFI  
 8         483 IgG     FALSE               PT       279.          2.47  MFI  
 9         484 IgG     FALSE               PT       441.          3.92  MFI  
10         485 IgG     FALSE               PT       498.          4.42  MFI  
# ℹ 172 more rows
# ℹ 13 more variables: lower_limit_of_detection <dbl>, subject_id <dbl>,
#   infancy_vac <chr>, biological_sex <chr>, ethnicity <chr>, race <chr>,
#   year_of_birth <date>, date_of_boost <date>, dataset <chr>,
#   actual_day_relative_to_boost <dbl>, planned_day_relative_to_boost <dbl>,
#   specimen_type <chr>, visit <dbl>

training_validation

# A tibble: 49 × 20
   specimen_id isotype is_antigen_specific antigen   MFI MFI_normalised unit 
         <dbl> <chr>   <lgl>               <chr>   <dbl>          <dbl> <chr>
 1         475 IgG     FALSE               PT       125.           1.11 MFI  
 2         476 IgG     FALSE               PT       275.           2.44 MFI  
 3         477 IgG     FALSE               PT       263.           2.33 MFI  
 4         478 IgG     FALSE               PT       852.           7.56 MFI  
 5         479 IgG     FALSE               PT      1548.          13.7  MFI  
 6         480 IgG     FALSE               PT      1194.          10.6  MFI  
 7         481 IgG     FALSE               PT       680.           6.03 MFI  
 8         506 IgG     FALSE               PT       170.           1.51 MFI  
 9         507 IgG     FALSE               PT       148.           1.31 MFI  
10         508 IgG     FALSE               PT       150.           1.33 MFI  
# ℹ 39 more rows
# ℹ 13 more variables: lower_limit_of_detection <dbl>, subject_id <dbl>,
#   infancy_vac <chr>, biological_sex <chr>, ethnicity <chr>, race <chr>,
#   year_of_birth <date>, date_of_boost <date>, dataset <chr>,
#   actual_day_relative_to_boost <dbl>, planned_day_relative_to_boost <dbl>,
#   specimen_type <chr>, visit <dbl>
…
